[
    [
        {
            "rent":[
                {
                    "client_id":["5d65ac9e-d431-4138-a8e4-c4719205cb1b"],
                    "object_id":["b172a2ab-5900-4532-bd68-68a041752017"],
                    "details":[{"status":"RENTED","until":"2020/10/01"}]
                }
            ]
        }
    ],
    [
        {
            "return":[
                {
                    "object_id":"b172a2ab-5900-4532-bd68-68a041752017",
                    "client_id":"5d65ac9e-d431-4138-a8e4-c4719205cb1b",
                    "details":{"status":"RENTED","until":"2020/10/01"}
                }
            ]
        }
    ],
    [
        {
            "delivery_to_rent":[]
        }
    ],
    [
        {
            "delivery_to_return":[
                {
                    "client_id":"5d65ac9e-d431-4138-a8e4-c4719205cb1b",
                    "object_id":"b172a2ab-5900-4532-bd68-68a041752017",
                    "details":{"status":"delivery_to_return","until":"2020/10/01"}
                }
            ]
        }
    ]
]